2016/06/01 * guld pre-founding contributions
    orthlieb:Assets                              100 GULD
    orthlieb:Income:guld                        -100 GULD
    guld:Liabilities                         -100 GULD
    guld:Equity:orthlieb                          100 GULD
